{
    "groups": [
        {
            "@id":"urn:sis:v2:grades:semester",
            "@description":"Groups course grades according to the semester of each course",
            "title":"Grades.Semester",
            "attribute": "semester",
            "key": "semester.id",
            "value": "semester.id"
        },
        {
            "@id":"urn:sis:v2:grades:courseType",
            "@description":"Groups course grades according to the type of each course",
            "title":"Grades.Type",
            "attribute": "courseType",
            "key": "courseType.id",
            "value": "courseType.name"
        }
    ]
}